^F:\PROJECTS\RELEASE\3DDFA_CVPR2016\3DDFA\3DDFA\TEST.CPP
F:\PROJECTS\RELEASE\3DDFA_CVPR2016\3DDFA\3DDFA\DEBUG\VC120.PDB
F:\PROJECTS\RELEASE\3DDFA_CVPR2016\3DDFA\3DDFA\DEBUG\VC120.IDB
^F:\PROJECTS\RELEASE\3DDFA_CVPR2016\3DDFA\3DDFA\CNN.CPP
F:\PROJECTS\RELEASE\3DDFA_CVPR2016\3DDFA\3DDFA\DEBUG\VC120.PDB
F:\PROJECTS\RELEASE\3DDFA_CVPR2016\3DDFA\3DDFA\DEBUG\VC120.IDB
F:\PROJECTS\RELEASE\3DDFA_CVPR2016\3DDFA\3DDFA\DEBUG\CNN.OBJ
