^F:\PROJECTS\RELEASE\3DDFA_CVPR2016\3DDFA\3DDFA\DEBUG\CNN.OBJ
F:\PROJECTS\RELEASE\3DDFA_CVPR2016\3DDFA\BIN\3DDFA.ILK
F:\PROJECTS\RELEASE\3DDFA_CVPR2016\3DDFA\BIN\3DDFA.EXE
F:\PROJECTS\RELEASE\3DDFA_CVPR2016\3DDFA\BIN\3DDFA.PDB
